id;name;creation_date;name_dg
1;Unbranded directional;2022-04-14T13:37:26;mint Nepalese harness
2;Practical Plaza;2022-04-14T08:03:48;digital
3;Liaison mindshare;2022-04-14T09:43:22;payment Identity Pound
4;Borders;2022-04-13T21:04:24;integrated multi-state
5;unleash;2022-04-14T05:56:12;Concrete
6;Frozen Tasty monetize;2022-04-14T15:10:03;digital Factors Soft
7;multi-byte Account;2022-04-14T10:04:58;Marketing
8;Small Car;2022-04-14T04:35:24;open-source Real Indonesia
9;Savings;2022-04-14T11:12:50;seize models
10;Principal;2022-04-13T18:36:36;Florida connecting Accountability
