{
  "applications": ["CoopCycle"],
  "changelogDate": "20220414155030",
  "dto": "mapstruct",
  "embedded": false,
  "entityTableName": "restaurant",
  "fields": [
    {
      "fieldName": "id",
      "fieldType": "Long",
      "fieldValidateRules": ["unique", "required"]
    },
    {
      "fieldName": "streetAddress",
      "fieldType": "String"
    },
    {
      "fieldName": "postalCode",
      "fieldType": "String"
    },
    {
      "fieldName": "city",
      "fieldType": "String"
    },
    {
      "fieldName": "stateProvince",
      "fieldType": "String"
    }
  ],
  "fluentMethods": true,
  "jpaMetamodelFiltering": false,
  "name": "Restaurant",
  "pagination": "no",
  "readOnly": false,
  "relationships": [
    {
      "otherEntityName": "products",
      "otherEntityRelationshipName": "isAvailableIn",
      "ownerSide": true,
      "relationshipName": "offer",
      "relationshipType": "one-to-one"
    },
    {
      "otherEntityName": "aUser",
      "otherEntityRelationshipName": "restaurant",
      "relationshipName": "aUser",
      "relationshipType": "one-to-many"
    },
    {
      "otherEntityName": "cooperative",
      "otherEntityRelationshipName": "has",
      "relationshipName": "belongs",
      "relationshipType": "many-to-one"
    },
    {
      "otherEntityName": "aUser",
      "otherEntityRelationshipName": "possesses",
      "relationshipName": "owner",
      "relationshipType": "one-to-many"
    }
  ],
  "service": "serviceImpl"
}
